[
  {
    "solid": "Li",
    "structure": "BCC",
    "exp_latt": 3.443,
    "exp_B0": 13.1
  },
  {
    "solid": "Na",
    "structure": "BCC",
    "exp_latt": 4.214,
    "exp_B0": 7.9
  },
  {
    "solid": "K",
    "structure": "BCC",
    "exp_latt": 5.212,
    "exp_B0": 3.8
  },
  {
    "solid": "Rb",
    "structure": "BCC",
    "exp_latt": 5.577,
    "exp_B0": 3.6
  },
  {
    "solid": "Nb",
    "structure": "BCC",
    "exp_latt": 3.294,
    "exp_B0": 173.2
  },
  {
    "solid": "W",
    "structure": "BCC",
    "exp_latt": 3.160,
    "exp_B0": 327.5
  },
  {
    "solid": "Cu",
    "structure": "FCC",
    "exp_latt": 3.595,
    "exp_B0": 144.3
  },
  {
    "solid": "Ir",
    "structure": "FCC",
    "exp_latt": 3.831,
    "exp_B0": 362.2
  },
  {
    "solid": "Pd",
    "structure": "FCC",
    "exp_latt": 3.876,
    "exp_B0": 187.2
  },
  {
    "solid": "Pt",
    "structure": "FCC",
    "exp_latt": 3.913,
    "exp_B0": 285.5
  },
  {
    "solid": "Ag",
    "structure": "FCC",
    "exp_latt": 4.062,
    "exp_B0": 105.7
  },
  {
    "solid": "Au",
    "structure": "FCC",
    "exp_latt": 4.062,
    "exp_B0": 182.0
  },
  {
    "solid": "Rh",
    "structure": "FCC",
    "exp_latt": 3.794,
    "exp_B0": 277.1
  },
  {
    "solid": "Mo",
    "structure": "BCC",
    "exp_latt": 3.141,
    "exp_B0": 276.2
  },
  {
    "solid": "Ta",
    "structure": "BCC",
    "exp_latt": 3.299,
    "exp_B0": 202.7
  },
  {
    "solid": "Sr",
    "structure": "FCC",
    "exp_latt": 6.040,
    "exp_B0": 12
  },
  {
    "solid": "Ba",
    "structure": "BCC",
    "exp_latt": 5.002,
    "exp_B0": 10.6
  },
  {
    "solid": "Ca",
    "structure": "FCC",
    "exp_latt": 5.556,
    "exp_B0": 15.9
  },
  {
    "solid": "Cs",
    "structure": "BCC",
    "exp_latt": 6.039,
    "exp_B0": 2.3
  },
  {
    "solid": "Ru",
    "structure": "HCP",
    "exp_latt": 2.669,
    "exp_B0": 320.8,
    "source_alt": "Phase Diagrams of the Elements - David A. Young",
    "source": "https://www.google.it/books/edition/Understanding_the_Properties_of_Matter/ya-4enCDoWQC?hl=en&gbpv=1&dq=bulk+modulus+elements&pg=PA182&printsec=frontcover"
  },
  {
    "solid": "Al",
    "structure": "FCC",
    "exp_latt": 4.018,
    "exp_B0": 77.1
  },
  {
    "solid": "Tc",
    "structure": "HCP",
    "exp_latt": 2.716,
    "exp_B0": 297.0,
    "source_alt": "Phase Diagrams of the Elements - David A. Young",
    "source": "https://www.google.it/books/edition/Understanding_the_Properties_of_Matter/ya-4enCDoWQC?hl=en&gbpv=1&dq=bulk+modulus+elements&pg=PA182&printsec=frontcover"
  },
  {
    "solid": "Re",
    "structure": "HCP",
    "exp_latt": 2.744,
    "exp_B0": 372.0,
    "source_alt": "Phase Diagrams of the Elements - David A. Young",
    "source": "https://www.google.it/books/edition/Understanding_the_Properties_of_Matter/ya-4enCDoWQC?hl=en&gbpv=1&dq=bulk+modulus+elements&pg=PA182&printsec=frontcover"
  },
  {
    "solid": "Os",
    "structure": "HCP",
    "exp_latt": 2.699,
    "exp_B0": 418.0,
    "source_alt": "Phase Diagrams of the Elements - David A. Young",
    "source": "https://www.google.it/books/edition/Understanding_the_Properties_of_Matter/ya-4enCDoWQC?hl=en&gbpv=1&dq=bulk+modulus+elements&pg=PA182&printsec=frontcover"
  },
  {
    "solid": "Sc",
    "structure": "HCP",
    "exp_latt": 3.270,
    "exp_B0": 39.4,
    "source_alt": "Phase Diagrams of the Elements - David A. Young",
    "source": "https://www.google.it/books/edition/Understanding_the_Properties_of_Matter/ya-4enCDoWQC?hl=en&gbpv=1&dq=bulk+modulus+elements&pg=PA182&printsec=frontcover"
  },
  {
    "solid": "Y",
    "structure": "HCP",
    "exp_latt": 3.594,
    "exp_B0": 36.6,
    "source_alt": "Phase Diagrams of the Elements - David A. Young",
    "source": "https://www.google.it/books/edition/Understanding_the_Properties_of_Matter/ya-4enCDoWQC?hl=en&gbpv=1&dq=bulk+modulus+elements&pg=PA182&printsec=frontcover"
  },
  {
    "solid": "Ti",
    "structure": "HCP",
    "exp_latt": 2.915,
    "exp_B0": 105.1,
    "source_alt": "Phase Diagrams of the Elements - David A. Young",
    "source": "https://www.google.it/books/edition/Understanding_the_Properties_of_Matter/ya-4enCDoWQC?hl=en&gbpv=1&dq=bulk+modulus+elements&pg=PA182&printsec=frontcover"
  },
  {
    "solid": "Zr",
    "structure": "HCP",
    "exp_latt": 3.198,
    "exp_B0": 83.3,
    "source_alt": "Phase Diagrams of the Elements - David A. Young",
    "source": "https://www.google.it/books/edition/Understanding_the_Properties_of_Matter/ya-4enCDoWQC?hl=en&gbpv=1&dq=bulk+modulus+elements&pg=PA182&printsec=frontcover"
  },
  {
    "solid": "Hf",
    "structure": "HCP",
    "exp_latt": 3.151,
    "exp_B0": 109.0,
    "source_alt": "Phase Diagrams of the Elements - David A. Young",
    "source": "https://www.google.it/books/edition/Understanding_the_Properties_of_Matter/ya-4enCDoWQC?hl=en&gbpv=1&dq=bulk+modulus+elements&pg=PA182&printsec=frontcover"
  }
]
